FHQN1006991201701240012033540000008ESTADORPAGO       20170124                     ADH1006991                                                                                                                                                                                                                                                                                                                                                                                                                                    
N1PO100699120170124001N00000085-00000000       04710764000                                                                                                                                                                                                                                                                                                                                                                                                                                                                      
QN04710764000008APROBACION PENDIENTE BCO                                    001Lote OP Ingresado                                                                                                                                                                                                                                                                                                                                                                                                                                
QN04710764000008APROBACION PENDIENTE BCO                                    002Lote OP Aprobado                                                                                                                                                                                                                                                                                                                                                                                                                                 
QN04710764000001PENDIENTE DE EJECUCION                                      002OP Validada - Sin Errores                                                                                                                                                                                                                                                                                                                                                                                                                        
QN04710764000002SIN RETIRAR/CRED A CONFIR                                   050Débito de OP en Cuenta                                                                                                                                                                                                                                                                                                                                                                                                                           
QN04710764000002SIN RETIRAR/CRED A CONFIR                                   051Transf. Lista a Ejecutar                                                                                                                                                                                                                                                                                                                                                                                                                         
QN04710764000003ENTREGADO / EJECUTADA                                       051Transferencia Ejecutada                                                                                                                                                                                                                                                                                                                                                                                                                          
QN04710764000003ENTREGADO / EJECUTADA                                       053Pend. Resp. INTERBANKING                                                                                                                                                                                                                                                                                                                                                                                                                         
QN04710764000006COBRADA POR BENEFICIARIO                                    051Confirmación Bco. Destino                                                                                                                                                                                                                                                                                                                                                                                                                        
T1                         0000000010                                                                                                                                                                                                                                                                                                                                                                                                                                                                                           
N1PO100699120170124001N00000086-00000000       04710765000                                                                                                                                                                                                                                                                                                                                                                                                                                                                      
QN04710765000008APROBACION PENDIENTE BCO                                    001Lote OP Ingresado                                                                                                                                                                                                                                                                                                                                                                                                                                
QN04710765000008APROBACION PENDIENTE BCO                                    002Lote OP Aprobado                                                                                                                                                                                                                                                                                                                                                                                                                                 
QN04710765000001PENDIENTE DE EJECUCION                                      002OP Validada - Sin Errores                                                                                                                                                                                                                                                                                                                                                                                                                        
QN04710765000002SIN RETIRAR/CRED A CONFIR                                   050Débito de OP en Cuenta                                                                                                                                                                                                                                                                                                                                                                                                                           
QN04710765000002SIN RETIRAR/CRED A CONFIR                                   051Transf. Lista a Ejecutar                                                                                                                                                                                                                                                                                                                                                                                                                         
QN04710765000003ENTREGADO / EJECUTADA                                       051Transferencia Ejecutada                                                                                                                                                                                                                                                                                                                                                                                                                          
QN04710765000003ENTREGADO / EJECUTADA                                       053Pend. Resp. INTERBANKING                                                                                                                                                                                                                                                                                                                                                                                                                         
QN04710765000006COBRADA POR BENEFICIARIO                                    051Confirmación Bco. Destino                                                                                                                                                                                                                                                                                                                                                                                                                        
T1                         0000000010                                                                                                                                                                                                                                                                                                                                                                                                                                                                                           
N1PO100699120170124001N00000095-00000000       04710766000                                                                                                                                                                                                                                                                                                                                                                                                                                                                      
QN04710766000008APROBACION PENDIENTE BCO                                    001Lote OP Ingresado                                                                                                                                                                                                                                                                                                                                                                                                                                
QN04710766000008APROBACION PENDIENTE BCO                                    002Lote OP Aprobado                                                                                                                                                                                                                                                                                                                                                                                                                                 
QN04710766000001PENDIENTE DE EJECUCION                                      002OP Validada - Sin Errores                                                                                                                                                                                                                                                                                                                                                                                                                        
QN04710766000002SIN RETIRAR/CRED A CONFIR                                   050Débito de OP en Cuenta                                                                                                                                                                                                                                                                                                                                                                                                                           
QN04710766000002SIN RETIRAR/CRED A CONFIR                                   051Transf. Lista a Ejecutar                                                                                                                                                                                                                                                                                                                                                                                                                         
QN04710766000003ENTREGADO / EJECUTADA                                       051Transferencia Ejecutada                                                                                                                                                                                                                                                                                                                                                                                                                          
QN04710766000003ENTREGADO / EJECUTADA                                       053Pend. Resp. INTERBANKING                                                                                                                                                                                                                                                                                                                                                                                                                         
QN04710766000006COBRADA POR BENEFICIARIO                                    051Confirmación Bco. Destino                                                                                                                                                                                                                                                                                                                                                                                                                        
T1                         0000000010                                                                                                                                                                                                                                                                                                                                                                                                                                                                                           
N1PO100699120170124001N00000099-00000000       04710767000                                                                                                                                                                                                                                                                                                                                                                                                                                                                      
QN04710767000008APROBACION PENDIENTE BCO                                    001Lote OP Ingresado                                                                                                                                                                                                                                                                                                                                                                                                                                
QN04710767000008APROBACION PENDIENTE BCO                                    002Lote OP Aprobado                                                                                                                                                                                                                                                                                                                                                                                                                                 
QN04710767000001PENDIENTE DE EJECUCION                                      002OP Validada - Sin Errores                                                                                                                                                                                                                                                                                                                                                                                                                        
QN04710767000002SIN RETIRAR/CRED A CONFIR                                   050Débito de OP en Cuenta                                                                                                                                                                                                                                                                                                                                                                                                                           
QN04710767000002SIN RETIRAR/CRED A CONFIR                                   051Transf. Lista a Ejecutar                                                                                                                                                                                                                                                                                                                                                                                                                         
QN04710767000003ENTREGADO / EJECUTADA                                       051Transferencia Ejecutada                                                                                                                                                                                                                                                                                                                                                                                                                          
QN04710767000003ENTREGADO / EJECUTADA                                       053Pend. Resp. INTERBANKING                                                                                                                                                                                                                                                                                                                                                                                                                         
QN04710767000006COBRADA POR BENEFICIARIO                                    051Confirmación Bco. Destino                                                                                                                                                                                                                                                                                                                                                                                                                        
T1                         0000000010                                                                                                                                                                                                                                                                                                                                                                                                                                                                                           
N1PO100699120170124001N00000092-00000000       04710768000                                                                                                                                                                                                                                                                                                                                                                                                                                                                      
QN04710768000008APROBACION PENDIENTE BCO                                    001Lote OP Ingresado                                                                                                                                                                                                                                                                                                                                                                                                                                
QN04710768000008APROBACION PENDIENTE BCO                                    002Lote OP Aprobado                                                                                                                                                                                                                                                                                                                                                                                                                                 
QN04710768000001PENDIENTE DE EJECUCION                                      002OP Validada - Sin Errores                                                                                                                                                                                                                                                                                                                                                                                                                        
QN04710768000002SIN RETIRAR/CRED A CONFIR                                   050Débito de OP en Cuenta                                                                                                                                                                                                                                                                                                                                                                                                                           
QN04710768000002SIN RETIRAR/CRED A CONFIR                                   051Transf. Lista a Ejecutar                                                                                                                                                                                                                                                                                                                                                                                                                         
QN04710768000003ENTREGADO / EJECUTADA                                       051Transferencia Ejecutada                                                                                                                                                                                                                                                                                                                                                                                                                          
QN04710768000003ENTREGADO / EJECUTADA                                       053Pend. Resp. INTERBANKING                                                                                                                                                                                                                                                                                                                                                                                                                         
QN04710768000006COBRADA POR BENEFICIARIO                                    051Confirmación Bco. Destino                                                                                                                                                                                                                                                                                                                                                                                                                        
T1                         0000000010                                                                                                                                                                                                                                                                                                                                                                                                                                                                                           
N1PO100699120170124001N00000098-00000000       04710769000                                                                                                                                                                                                                                                                                                                                                                                                                                                                      
QN04710769000008APROBACION PENDIENTE BCO                                    001Lote OP Ingresado                                                                                                                                                                                                                                                                                                                                                                                                                                
QN04710769000008APROBACION PENDIENTE BCO                                    002Lote OP Aprobado                                                                                                                                                                                                                                                                                                                                                                                                                                 
QN04710769000001PENDIENTE DE EJECUCION                                      002OP Validada - Sin Errores                                                                                                                                                                                                                                                                                                                                                                                                                        
QN04710769000002SIN RETIRAR/CRED A CONFIR                                   050Débito de OP en Cuenta                                                                                                                                                                                                                                                                                                                                                                                                                           
QN04710769000002SIN RETIRAR/CRED A CONFIR                                   051Transf. Lista a Ejecutar                                                                                                                                                                                                                                                                                                                                                                                                                         
QN04710769000003ENTREGADO / EJECUTADA                                       051Transferencia Ejecutada                                                                                                                                                                                                                                                                                                                                                                                                                          
QN04710769000003ENTREGADO / EJECUTADA                                       053Pend. Resp. INTERBANKING                                                                                                                                                                                                                                                                                                                                                                                                                         
QN04710769000006COBRADA POR BENEFICIARIO                                    051Confirmación Bco. Destino                                                                                                                                                                                                                                                                                                                                                                                                                        
T1                         0000000010                                                                                                                                                                                                                                                                                                                                                                                                                                                                                           
N1PO100699120170124001N00000094-00000000       04710770000                                                                                                                                                                                                                                                                                                                                                                                                                                                                      
QN04710770000008APROBACION PENDIENTE BCO                                    001Lote OP Ingresado                                                                                                                                                                                                                                                                                                                                                                                                                                
QN04710770000008APROBACION PENDIENTE BCO                                    002Lote OP Aprobado                                                                                                                                                                                                                                                                                                                                                                                                                                 
QN04710770000001PENDIENTE DE EJECUCION                                      002OP Validada - Sin Errores                                                                                                                                                                                                                                                                                                                                                                                                                        
QN04710770000002SIN RETIRAR/CRED A CONFIR                                   050Débito de OP en Cuenta                                                                                                                                                                                                                                                                                                                                                                                                                           
QN04710770000002SIN RETIRAR/CRED A CONFIR                                   051Transf. Lista a Ejecutar                                                                                                                                                                                                                                                                                                                                                                                                                         
QN04710770000003ENTREGADO / EJECUTADA                                       051Transferencia Ejecutada                                                                                                                                                                                                                                                                                                                                                                                                                          
QN04710770000003ENTREGADO / EJECUTADA                                       053Pend. Resp. INTERBANKING                                                                                                                                                                                                                                                                                                                                                                                                                         
QN04710770000006COBRADA POR BENEFICIARIO                                    051Confirmación Bco. Destino                                                                                                                                                                                                                                                                                                                                                                                                                        
T1                         0000000010                                                                                                                                                                                                                                                                                                                                                                                                                                                                                           
N1PO100699120170124001N00000093-00000000       04710771000                                                                                                                                                                                                                                                                                                                                                                                                                                                                      
QN04710771000008APROBACION PENDIENTE BCO                                    001Lote OP Ingresado                                                                                                                                                                                                                                                                                                                                                                                                                                
QN04710771000008APROBACION PENDIENTE BCO                                    002Lote OP Aprobado                                                                                                                                                                                                                                                                                                                                                                                                                                 
QN04710771000001PENDIENTE DE EJECUCION                                      002OP Validada - Sin Errores                                                                                                                                                                                                                                                                                                                                                                                                                        
QN04710771000002SIN RETIRAR/CRED A CONFIR                                   050Débito de OP en Cuenta                                                                                                                                                                                                                                                                                                                                                                                                                           
QN04710771000002SIN RETIRAR/CRED A CONFIR                                   051Transf. Lista a Ejecutar                                                                                                                                                                                                                                                                                                                                                                                                                         
QN04710771000003ENTREGADO / EJECUTADA                                       051Transferencia Ejecutada                                                                                                                                                                                                                                                                                                                                                                                                                          
QN04710771000003ENTREGADO / EJECUTADA                                       053Pend. Resp. INTERBANKING                                                                                                                                                                                                                                                                                                                                                                                                                         
QN04710771000006COBRADA POR BENEFICIARIO                                    051Confirmación Bco. Destino                                                                                                                                                                                                                                                                                                                                                                                                                        
T1                         0000000010                                                                                                                                                                                                                                                                                                                                                                                                                                                                                           
N1PO100699120170124001N00000088-00000000       04710772000                                                                                                                                                                                                                                                                                                                                                                                                                                                                      
QN04710772000008APROBACION PENDIENTE BCO                                    001Lote OP Ingresado                                                                                                                                                                                                                                                                                                                                                                                                                                
QN04710772000008APROBACION PENDIENTE BCO                                    002Lote OP Aprobado                                                                                                                                                                                                                                                                                                                                                                                                                                 
QN04710772000001PENDIENTE DE EJECUCION                                      002OP Validada - Sin Errores                                                                                                                                                                                                                                                                                                                                                                                                                        
QN04710772000002SIN RETIRAR/CRED A CONFIR                                   050Débito de OP en Cuenta                                                                                                                                                                                                                                                                                                                                                                                                                           
QN04710772000002SIN RETIRAR/CRED A CONFIR                                   051Transf. Lista a Ejecutar                                                                                                                                                                                                                                                                                                                                                                                                                         
QN04710772000003ENTREGADO / EJECUTADA                                       051Transferencia Ejecutada                                                                                                                                                                                                                                                                                                                                                                                                                          
QN04710772000003ENTREGADO / EJECUTADA                                       053Pend. Resp. INTERBANKING                                                                                                                                                                                                                                                                                                                                                                                                                         
QN04710772000006COBRADA POR BENEFICIARIO                                    051Confirmación Bco. Destino                                                                                                                                                                                                                                                                                                                                                                                                                        
T1                         0000000010                                                                                                                                                                                                                                                                                                                                                                                                                                                                                           
N1PO100699120170124001N00000091-00000000       04710773000                                                                                                                                                                                                                                                                                                                                                                                                                                                                      
QN04710773000008APROBACION PENDIENTE BCO                                    001Lote OP Ingresado                                                                                                                                                                                                                                                                                                                                                                                                                                
QN04710773000008APROBACION PENDIENTE BCO                                    002Lote OP Aprobado                                                                                                                                                                                                                                                                                                                                                                                                                                 
QN04710773000001PENDIENTE DE EJECUCION                                      002OP Validada - Sin Errores                                                                                                                                                                                                                                                                                                                                                                                                                        
QN04710773000002SIN RETIRAR/CRED A CONFIR                                   050Débito de OP en Cuenta                                                                                                                                                                                                                                                                                                                                                                                                                           
QN04710773000002SIN RETIRAR/CRED A CONFIR                                   051Transf. Lista a Ejecutar                                                                                                                                                                                                                                                                                                                                                                                                                         
QN04710773000003ENTREGADO / EJECUTADA                                       051Transferencia Ejecutada                                                                                                                                                                                                                                                                                                                                                                                                                          
QN04710773000003ENTREGADO / EJECUTADA                                       053Pend. Resp. INTERBANKING                                                                                                                                                                                                                                                                                                                                                                                                                         
QN04710773000006COBRADA POR BENEFICIARIO                                    051Confirmación Bco. Destino                                                                                                                                                                                                                                                                                                                                                                                                                        
T1                         0000000010                                                                                                                                                                                                                                                                                                                                                                                                                                                                                           
N1PO100699120170124001N00000089-00000000       04710774000                                                                                                                                                                                                                                                                                                                                                                                                                                                                      
QN04710774000008APROBACION PENDIENTE BCO                                    001Lote OP Ingresado                                                                                                                                                                                                                                                                                                                                                                                                                                
QN04710774000008APROBACION PENDIENTE BCO                                    002Lote OP Aprobado                                                                                                                                                                                                                                                                                                                                                                                                                                 
QN04710774000001PENDIENTE DE EJECUCION                                      002OP Validada - Sin Errores                                                                                                                                                                                                                                                                                                                                                                                                                        
QN04710774000002SIN RETIRAR/CRED A CONFIR                                   050Débito de OP en Cuenta                                                                                                                                                                                                                                                                                                                                                                                                                           
QN04710774000002SIN RETIRAR/CRED A CONFIR                                   051Transf. Lista a Ejecutar                                                                                                                                                                                                                                                                                                                                                                                                                         
QN04710774000003ENTREGADO / EJECUTADA                                       051Transferencia Ejecutada                                                                                                                                                                                                                                                                                                                                                                                                                          
QN04710774000003ENTREGADO / EJECUTADA                                       053Pend. Resp. INTERBANKING                                                                                                                                                                                                                                                                                                                                                                                                                         
QN04710774000006COBRADA POR BENEFICIARIO                                    051Confirmación Bco. Destino                                                                                                                                                                                                                                                                                                                                                                                                                        
T1                         0000000010                                                                                                                                                                                                                                                                                                                                                                                                                                                                                           
N1PO100699120170124001N00000097-00000000       04710775000                                                                                                                                                                                                                                                                                                                                                                                                                                                                      
QN04710775000008APROBACION PENDIENTE BCO                                    001Lote OP Ingresado                                                                                                                                                                                                                                                                                                                                                                                                                                
QN04710775000008APROBACION PENDIENTE BCO                                    002Lote OP Aprobado                                                                                                                                                                                                                                                                                                                                                                                                                                 
QN04710775000001PENDIENTE DE EJECUCION                                      002OP Validada - Sin Errores                                                                                                                                                                                                                                                                                                                                                                                                                        
QN04710775000002SIN RETIRAR/CRED A CONFIR                                   050Débito de OP en Cuenta                                                                                                                                                                                                                                                                                                                                                                                                                           
QN04710775000002SIN RETIRAR/CRED A CONFIR                                   051Transf. Lista a Ejecutar                                                                                                                                                                                                                                                                                                                                                                                                                         
QN04710775000003ENTREGADO / EJECUTADA                                       051Transferencia Ejecutada                                                                                                                                                                                                                                                                                                                                                                                                                          
QN04710775000003ENTREGADO / EJECUTADA                                       053Pend. Resp. INTERBANKING                                                                                                                                                                                                                                                                                                                                                                                                                         
QN04710775000006COBRADA POR BENEFICIARIO                                    051Confirmación Bco. Destino                                                                                                                                                                                                                                                                                                                                                                                                                        
T1                         0000000010                                                                                                                                                                                                                                                                                                                                                                                                                                                                                           
N1PO100699120170124001N00000090-00000000       04710776000                                                                                                                                                                                                                                                                                                                                                                                                                                                                      
QN04710776000008APROBACION PENDIENTE BCO                                    001Lote OP Ingresado                                                                                                                                                                                                                                                                                                                                                                                                                                
QN04710776000008APROBACION PENDIENTE BCO                                    002Lote OP Aprobado                                                                                                                                                                                                                                                                                                                                                                                                                                 
QN04710776000001PENDIENTE DE EJECUCION                                      002OP Validada - Sin Errores                                                                                                                                                                                                                                                                                                                                                                                                                        
QN04710776000002SIN RETIRAR/CRED A CONFIR                                   050Débito de OP en Cuenta                                                                                                                                                                                                                                                                                                                                                                                                                           
QN04710776000002SIN RETIRAR/CRED A CONFIR                                   051Transf. Lista a Ejecutar                                                                                                                                                                                                                                                                                                                                                                                                                         
QN04710776000003ENTREGADO / EJECUTADA                                       051Transferencia Ejecutada                                                                                                                                                                                                                                                                                                                                                                                                                          
QN04710776000003ENTREGADO / EJECUTADA                                       053Pend. Resp. INTERBANKING                                                                                                                                                                                                                                                                                                                                                                                                                         
QN04710776000006COBRADA POR BENEFICIARIO                                    051Confirmación Bco. Destino                                                                                                                                                                                                                                                                                                                                                                                                                        
T1                         0000000010                                                                                                                                                                                                                                                                                                                                                                                                                                                                                           
N1PO100699120170124001N00000087-00000000       04710777000                                                                                                                                                                                                                                                                                                                                                                                                                                                                      
QN04710777000008APROBACION PENDIENTE BCO                                    001Lote OP Ingresado                                                                                                                                                                                                                                                                                                                                                                                                                                
QN04710777000008APROBACION PENDIENTE BCO                                    002Lote OP Aprobado                                                                                                                                                                                                                                                                                                                                                                                                                                 
QN04710777000001PENDIENTE DE EJECUCION                                      002OP Validada - Sin Errores                                                                                                                                                                                                                                                                                                                                                                                                                        
QN04710777000002SIN RETIRAR/CRED A CONFIR                                   050Débito de OP en Cuenta                                                                                                                                                                                                                                                                                                                                                                                                                           
QN04710777000002SIN RETIRAR/CRED A CONFIR                                   051Transf. Lista a Ejecutar                                                                                                                                                                                                                                                                                                                                                                                                                         
QN04710777000003ENTREGADO / EJECUTADA                                       051Transferencia Ejecutada                                                                                                                                                                                                                                                                                                                                                                                                                          
QN04710777000003ENTREGADO / EJECUTADA                                       052Valid. OK INTERBANKING                                                                                                                                                                                                                                                                                                                                                                                                                           
QN04710777000003ENTREGADO / EJECUTADA                                       053Pend. Resp. INTERBANKING                                                                                                                                                                                                                                                                                                                                                                                                                         
QN04710777000006COBRADA POR BENEFICIARIO                                    051Confirmación Bco. Destino                                                                                                                                                                                                                                                                                                                                                                                                                        
T1                         0000000011                                                                                                                                                                                                                                                                                                                                                                                                                                                                                           
FT                         0000000143                                                                                                                                                                                                                                                                                                                                                                                                                                                                                           
